
POS     NUM           NAME                             STATUS     TCKL         SCK       INTT       TEAM   
=====================================================================================================  
CB       --      Acker, Kenneth                         ACT        23          0.0          1       IND
SAF      33      Adams, Andrew                          ACT        34          0.0          --       NYG
SAF      33      Adams, Jamal                           ACT        83          2.0          --       NYJ
DB       29      Adams, Mike                            ACT        69          0.0          2       CAR
DB       37      Addae, Jahleel                         ACT        96          0.5          --       LAC
CB       38      Adjei-Barimah, Jude                    UFA        --          --          --       TB
CB       39      Agnew, Jamal                           ACT        10          0.0          --       DET
DB       35      Aikens, Walt                           ACT        9           0.0          --       MIA
CB       20      Alexander, Mackensie                   ACT        17          0.0          1       MIN
DB       --      Alexander, Maurice                     ACT        20          0.0          --       SEA
DB       23      Alford, Robert                         ACT        68          0.0          1       ATL
CB       29      Allen, Brian                           ACT        2           0.0          --       PIT
DB       29      Allen, Nate                            UFA        20          0.0          --       MIA
CB       37      Allen, Ricardo                         ACT        54          0.0          1       ATL
DB       --      Amerson, David                         ACT        18          0.0          --       KC
SAF      38      Amos, Adrian                           ACT        69          0.0          1       CHI
DB       20      Amukamara, Prince                      ACT        48          0.0          --       CHI
DB       33      Anderson, Colt                         UFA        3           0.0          --       BUF
CB       24      Apple, Eli                             ACT        49          0.0          --       NYG
DB       55      Armstrong, Ray-Ray                     ACT        64          1.0          2       NYG
CB       33      Awuzie, Chidobe                        ACT        25          0.0          1       DAL
DB       --      Bademosi, Johnson                      ACT        29          0.0          --       HOU
SAF      36      Baker, Budda                           ACT        74          1.0          --       ARI
DB       31      Banjo, Chris                           ACT        12          0.0          1       NO
CB       --      Barnes, Adairius                       ACT        --          --          --       DET
DB       26      Barron, Mark                           ACT        86          1.0          3       LA
CB       --      Bausby, DeVante                        ACT        --          --          --       PHI
DB       46      Baxter, Keith                          ACT        --          --          --       KC
SAF      48      Bell, Vonn                             ACT        83          4.5          --       NO
DB       --      Benwikere, Bene'                       ACT        2           0.0          --       ARI
DB       --      Berhe, Nat                             ACT        12          1.0          --       PIT
DB       29      Berry, Eric                            ACT        7           0.0          --       KC
DB       41      Bethea, Antoine                        ACT        57          1.0          5       ARI
DB       --      Bethel, Justin                         ACT        41          0.0          1       ATL
CB       20      Boddy-Calhoun, Briean                  ACT        39          0.0          --       CLE
CB       41      Borders, Breon                         ACT        0           --          --       BUF
DB       33      Boston, Tre                            UFA        79          0.0          5       LAC
DB       --      Bouka, Elie                            ACT        --          --          --       PHI
DB       21      Bouye, A.J.                            ACT        56          0.0          6       JAX
DB       35      Boykin, Brandon                        UFA        --          --          --       BAL
DB       --      Boykins, Jeremy                        ACT        --          --          --       TEN
CB       24      Bradberry, James                       ACT        85          1.0          2       CAR
DB       35      Branch, Marcelis                       ACT        --          --          --       ATL
DB       27      Branch, Tyvon                          UFA        69          0.0          --       ARI
DB       26      Breeland, Bashaud                      UFA        50          0.0          1       WAS
SAF      29      Brice, Kentrell                        ACT        23          0.0          1       GB
DB       --      Brock, Tramaine                        ACT        8           0.0          --       DEN
DB       23      Brooks, Terrence                       ACT        13          0.0          2       NYJ
CB       30      Brown, Anthony                         ACT        56          1.0          2       DAL
CB       44      Brown, Donatello                       ACT        0           --          --       GB
DB       20      Bucannon, Deone                        ACT        82          1.0          1       ARI
DB       --      Burnett, Morgan                        ACT        68          0.0          --       PIT
CB       25      Burns, Artie                           ACT        54          0.0          1       PIT
CB       32      Burris, Juston                         ACT        21          0.0          1       NYJ
SAF      26      Bush, Deon                             ACT        6           0.0          --       CHI
DB       --      Bush, Rafael                           ACT        23          1.0          --       BUF
DB       20      Butler, Darius                         UFA        29          0.0          --       IND
DB       --      Butler, Malcolm                        ACT        60          1.0          2       TEN
SAF      31      Byard, Kevin                           ACT        87          0.0          8       TEN
DB       31      Byrd, Jairus                           UFA        11          0.0          --       CAR
CB       --      Calhoun, Taveze                        ACT        --          --          --       MIA
CB       37      Callahan, Bryce                        ACT        25          1.0          2       CHI
SAF      39      Campbell, Ibraheim                     ACT        18          0.0          0       HOU
CB       --      Canady, Maurice                        ACT        27          0.0          --       BAL
DB       --      Carey, Don                             ACT        9           0.0          --       JAX
DB       24      Carr, Brandon                          ACT        56          0.0          4       BAL
DB       --      Carrie, T.J.                           ACT        84          0.0          --       CLE
CB       --      Carter, Alex                           ACT        --          --          --       SEA
SAF      20      Carter, Jamal                          ACT        11          0.0          --       DEN
DB       --      Carter, Jarell                         ACT        --          --          --       ARI
DB       31      Chancellor, Kam                        ACT        49          0.0          --       SEA
DB       --      Chappell, Devin                        ACT        --          --          --       KC
SAF      41      Christian, Marqui                      ACT        9           0.0          --       LA
DB       23      Chung, Patrick                         ACT        84          0.0          1       NE
DB       42      Church, Barry                          ACT        74          1.5          4       JAX
DB       42      Church, Barry                          ACT        74          1.5          4       JAX
DB       21      Claiborne, Morris                      ACT        43          0.0          1       NYJ
SAF      36      Clark, Chuck                           ACT        13          0.0          --       BAL
CB       34      Clark, Jeremy                          ACT        0           --          --       NYJ
DB       21      Clinton-Dix, Ha Ha                     ACT        79          0.0          3       GB
DB       --      Cockrell, Ross                         ACT        50          0.0          3       CAR
SAF      38      Colbert, Adrian                        ACT        37          0.0          --       SF
CB       28      Coleman, Justin                        ACT        42          1.5          2       SEA
DB       --      Coleman, Kurt                          ACT        76          0.0          --       NO
CB       38      Coleman, Xavier                        ACT        0           --          --       NYJ
SAF      21      Collins, Landon                        ACT        104          0.0          2       NYG
DB       --      Colvin, Aaron                          ACT        45          0.0          --       HOU
CB       22      Conley, Gareon                         ACT        7           0.0          --       OAK
DB       23      Conte, Chris                           ACT        77          0.0          1       TB
DB       31      Cooper, Marcus                         ACT        18          0.0          --       CHI
CB       24      Countess, Blake                        ACT        25          0.0          1       LA
SAF      36      Cox, Demetrious                        ACT        4           0.0          --       CAR
DB       --      Cravens, Su'a                          ACT        --          --          --       DEN
CB       20      Crawley, Ken                           ACT        54          0.0          1       NO
SAF      39      Currie, Justin                         ACT        7           1.0          --       CLE
DB       37      Cyprien, Johnathan                     ACT        57          1.0          --       TEN
DB       --      Dangerfield, Jordan                    ACT        --          --          --       PIT
DB       --      Daniel, Robertson                      ACT        --          --          --       BAL
CB       41      Darby, Ronald                          ACT        34          0.0          3       PHI
DB       --      Davis, Cody                            ACT        22          0.0          1       JAX
CB       43      Davis, Michael                         ACT        18          0.0          --       LAC
SAF      28      Davis, Sean                            ACT        92          1.0          3       PIT
DB       --      Davis, Vontae                          ACT        21          0.0          --       BUF
CB       38      Deayon, Donte'                         ACT        10          0.0          --       NYG
SAF      31      Decoud, Treston                        ACT        7           0.0          --       HOU
DB       21      Dennard, Darqueze                      ACT        85          2.0          2       CIN
DB       35      Desir, Pierre                          ACT        32          0.0          1       IND
CB       28      Diggs, Quandre                         ACT        55          1.0          3       DET
DB       25      Dixon, Brandon                         ACT        21          0.0          --       NYG
CB       --      Dorleant, Makinton                     ACT        --          --          --       KC
CB       --      Doss, Lorenzo                          ACT        0           --          --       CAR
CB       32      Douglas, Rasul                         ACT        25          0.0          2       PHI
SAF      --      Drummond, Kurtis                       ACT        20          1.0          --       HOU
DB       38      Ducre, Greg                            ACT        --          --          --       PIT
CB       47      Dunbar, Quinton                        ACT        35          0.0          1       WAS
DB       43      Ebner, Nate                            ACT        8           0.0          --       NE
CB       35      Elder, Corn                            ACT        --          --          --       CAR
CB       21      Elliott, DeAndre                       ACT        --          --          --       SEA
CB       35      Elliott, Javien                        ACT        5           0.0          --       TB
SAF      43      Elston, Trae                           ACT        19          0.0          1       MIA
SAF      21      Evans, Justin                          ACT        66          0.0          3       TB
SAF      25      Evans, Marwin                          ACT        23          0.0          --       GB
CB       22      Everett, Deshazor                      ACT        62          0.0          --       WAS
DB       40      Exum, Antone                           UFA        3           0.0          0       SF
SAF      41      Farley, Matthias                       ACT        98          0.0          2       IND
SAF      42      Fejedelem, Clayton                     ACT        57          0.0          1       CIN
DB       --      Fleming, Reese                         ACT        --          --          --       TB
SAF      30      Ford, Rudy                             ACT        5           0.0          --       ARI
SAF      35      Frazier, Kavon                         ACT        33          0.0          --       DAL
CB       --      Fuller, Kendall                        ACT        55          0.0          4       KC
DB       23      Fuller, Kyle                           ACT        69          0.0          2       CHI
DB       --      Gaines, E.J.                           ACT        59          0.0          1       CLE
DB       --      Gaines, Phillip                        ACT        30          0.0          --       BUF
DB       --      Gay, William                           ACT        19          0.0          1       NYG
SAF      26      Geathers, Clayton                      ACT        8           0.0          --       IND
SAF      47      Gerry, Nate                            ACT        5           0.0          --       PHI
DB       --      Gilchrist, Marcus                      ACT        56          1.0          1       OAK
DB       24      Gilmore, Stephon                       ACT        50          0.0          2       NE
DB       39      Gipson, Tashaun                        ACT        64          0.0          4       JAX
DB       36      Goforth, Randall                       ACT        --          --          --       PHI
DB       30      Golden, Malik                          ACT        --          --          --       PIT
DB       --      Golden, Robert                         ACT        19          0.0          1       KC
CB       --      Golson, Senquez                        ACT        --          --          --       OAK
DB       39      Goodson, Demetri                       ACT        0           --          --       GB
DB       24      Graham, Corey                          UFA        38          0.0          2       PHI
CB       --      Grant, Doran                           ACT        --          --          --       CHI
SAF      32      Green, T.J.                            ACT        45          0.0          --       IND
CB       26      Griffin, Shaquill                      ACT        59          1.0          1       SEA
DB       24      Grimes, Brent                          ACT        49          0.0          3       TB
CB       23      Gunter, LaDarius                       ACT        0           0.0          0       CAR
DB       21      Haden, Joe                             ACT        20          1.0          1       PIT
DB       21      Haden, Joe                             ACT        20          1.0          1       PIT
CB       27      Hairston, Nate                         ACT        35          2.0          1       IND
DB       29      Hal, Andre                             ACT        71          0.0          3       HOU
DB       23      Hall, DeAngelo                         UFA        14          0.0          --       WAS
SAF      32      Hall, Deiondre'                        ACT        0           --          --       CHI
DB       --      Hall, Leon                             ACT        16          0.0          --       OAK
CB       32      Hamilton, Antonio                      ACT        11          0.0          --       OAK
CB       28      Hargreaves, Vernon                     ACT        42          0.0          --       TB
DB       30      Harmon, Duron                          ACT        23          0.0          4       NE
SAF      41      Harris, Anthony                        ACT        18          0.0          --       MIN
DB       25      Harris, Chris                          ACT        40          0.0          2       DEN
CB       --      Harris, De'Vante                       ACT        18          0.0          --       NO
SAF      41      Harris, Erik                           ACT        5           0.0          --       OAK
SAF      40      Harvey-Clemons, Josh                   ACT        16          0.5          --       WAS
CB       --      Hatfield, Dominique                    ACT        5           0.0          --       LA
CB       28      Hawkins, Josh                          ACT        38          0.0          --       GB
DB       --      Hayden, D.J.                           ACT        44          0.5          --       JAX
DB       26      Hayward, Casey                         ACT        40          0.0          4       LAC
DB       38      Heath, Jeff                            ACT        71          0.0          3       DAL
SAF      --      Hendy, A.J.                            ACT        --          --          --       LAC
SAF      42      Hill, Delano                           ACT        5           0.0          --       SEA
CB       43      Hill, Jaylen                           ACT        3           0.0          --       BAL
CB       32      Hill, Troy                             ACT        18          0.0          --       LA
CB       --      Hillary, Darius                        ACT        0           --          --       OAK
CB       31      Hilton, Mike                           ACT        64          4.0          2       PIT
CB       38      Holsey, Joshua                         ACT        2           0.0          --       WAS
SAF      29      Hooker, Malik                          ACT        22          0.0          3       IND
DB       31      House, Davon                           ACT        44          1.0          1       GB
SAF      --      Houston-Carson, DeAndre                ACT        10          0.0          --       CHI
CB       --      Howard, Tracy                          ACT        --          --          --       MIA
CB       25      Howard, Xavien                         ACT        48          1.0          4       MIA
DB       --      Huff, Marqueston                       ACT        --          --          --       DAL
CB       29      Humphrey, Marlon                       ACT        34          0.0          2       BAL
CB       39      Hunter, Michael                        ACT        0           0.0          0       DEN
DB       20      Hurst, Demontre                        ACT        0           --          --       TEN
DB       23      Hyde, Micah                            ACT        82          0.0          5       BUF
DB       43      Iloka, George                          ACT        80          0.0          1       CIN
DB       36      Ishmael, Kemal                         ACT        29          1.0          --       ATL
CB       --      Iworah, Prince Charles                 ACT        --          --          --       KC
CB       25      Jackson, Adoree'                       ACT        70          0.0          --       TEN
DB       --      Jackson, Bennett                       ACT        --          --          --       BAL
SAF      39      Jackson, Eddie                         ACT        73          0.0          2       CHI
DB       25      Jackson, Kareem                        ACT        73          1.0          1       HOU
DB       30      Jackson, Asa                           UFA        1           0.0          --       SF
CB       22      Jackson, William                       ACT        27          1.0          1       CIN
DB       43      James, Chanceller                      ACT        --          --          --       SF
CB       38      Jean-Baptiste, Stanley                 ACT        1           0.0          --       BAL
DB       --      Jefferson, Rickey                      ACT        --          --          --       NO
DB       23      Jefferson, Tony                        ACT        79          2.5          1       BAL
DB       20      Jenkins, Janoris                       ACT        31          0.0          3       NYG
DB       27      Jenkins, Malcolm                       ACT        76          1.0          2       PHI
SAF      25      Jenkins, Rayshawn                      ACT        13          0.0          --       LAC
DB       42      Johnson, Denzel                        ACT        --          --          --       TEN
DB       --      Johnson, Dontae                        ACT        77          0.0          1       SEA
SAF      39      Johnson, Isaiah                        ACT        4           0.0          --       TB
SAF      27      Johnson, Isaiah                        ACT        6           0.0          --       LA
SAF      43      Johnson, John                          ACT        75          0.0          1       LA
CB       30      Johnson, Kevin                         ACT        45          0.0          --       HOU
DB       24      Johnson, Leonard                       UFA        52          0.0          --       BUF
DB       --      Johnson, Trumaine                      ACT        65          0.0          2       NYJ
DB       24      Jones, Adam                            UFA        23          0.0          1       CIN
DB       37      Jones, Bryce                           ACT        --          --          --       HOU
CB       31      Jones, Byron                           ACT        82          0.0          1       DAL
DB       42      Jones, Colin                           ACT        23          0.0          1       CAR
CB       41      Jones, Cyrus                           ACT        --          --          --       NE
DB       34      Jones, David                           ACT        --          --          --       NE
CB       31      Jones, Derrick                         ACT        0           --          --       NYJ
DB       20      Jones, Don                             ACT        --          --          --       SF
CB       31      Jones, Jonathan                        ACT        44          1.0          1       NE
SAF      27      Jones, Josh                            ACT        71          2.0          1       GB
DB       20      Jones, Reshad                          ACT        122          1.5          2       MIA
CB       22      Jones, Sidney                          ACT        2           0.0          --       PHI
CB       41      Jordan, Michael                        ACT        20          0.0          --       CLE
DB       24      Joseph, Johnathan                      ACT        47          0.0          2       HOU
SAF      42      Joseph, Karl                           ACT        79          1.0          1       OAK
DB       20      Joyner, Lamarcus                       ACT        49          0.0          3       LA
DB       20      Joyner, Lamarcus                       ACT        49          0.0          3       LA
CB       27      Kazee, Damontae                        ACT        23          0.0          --       ATL
SAF      27      Kearse, Jayron                         ACT        13          0.0          --       MIN
CB       37      Keeton, Bryson                         ACT        --          --          --       NYJ
SAF      35      Killebrew, Miles                       ACT        38          0.0          1       DET
DB       --      Killings, D.J.                         ACT        --          --          --       PHI
SAF      26      Kindred, Derrick                       ACT        57          0.0          1       CLE
DB       --      King, Akeem                            ACT        --          --          --       SEA
SAF      36      King, Brandon                          ACT        8           0.0          --       NE
SAF      20      King, Desmond                          ACT        76          4.0          1       LAC
CB       20      King, Kevin                            ACT        28          0.0          --       GB
DB       27      Kirkpatrick, Dre                       ACT        55          1.0          1       CIN
DB       --      Ladler, Kenny                          ACT        --          --          --       WAS
CB       6-      Lampkin, Ashton                        ACT        --          --          --       KC
DB       20      Lane, Jeremy                           UFA        31          0.0          --       SEA
CB       27      Langley, Brendan                       ACT        3           0.0          --       DEN
CB       23      Lattimore, Marshon                     ACT        52          0.0          5       NO
DB       24      Lawson, Nevin                          ACT        47          0.0          --       DET
CB       22      LeBlanc, Cre'von                       ACT        17          1.0          --       CHI
DB       41      Levine, Anthony                        ACT        29          3.0          1       BAL
CB       27      Lewis, Jourdan                         ACT        54          0.0          1       DAL
DB       --      Lewis, Ryan                            ACT        --          --          --       NE
SAF      26      Luani, Shalom                          ACT        18          0.0          --       OAK
SAF      21      Lucas, Jordan                          ACT        6           0.0          --       MIA
CB       32      Luke, Cole                             ACT        0           --          --       CAR
CB       26      Mabin, Greg                            ACT        2           0.0          0       SF
CB       29      Mager, Craig                           ACT        0           --          --       LAC
DB       42      Maragos, Chris                         ACT        11          0.0          --       PHI
SAF      --      Marlowe, Dean                          ACT        --          --          --       BUF
SAF      40      Martin, Ronald                         ACT        0           --          --       IND
DB       --      Mathieu, Tyrann                        ACT        78          1.0          2       HOU
DB       41      Mauger, Quincy                         ACT        --          --          --       ATL
CB       --      Maulet, Arthur                         ACT        1           0.0          --       NO
DB       41      Maxwell, Byron                         UFA        46          0.0          1       SEA
SAF      26      Maye, Marcus                           ACT        79          0.0          2       NYJ
CB       28      McCain, Bobby                          ACT        48          1.0          2       MIA
DB       23      McCain, Brice                          UFA        12          0.0          --       TEN
DB       36      McClain, Robert                        UFA        50          0.0          3       TB
DB       --      McClure, Stefan                        ACT        3           0.0          --       DET
SAF      27      McCoil, Dexter                         ACT        5           0.0          0       SF
DB       32      McCourty, Devin                        ACT        97          1.0          1       NE
DB       --      McCourty, Jason                        ACT        65          0.0          3       NE
DB       --      McCray, L.J.                           ACT        --          --          --       BUF
DB       --      McCray, Kelcie                         ACT        --          --          --       BUF
DB       41      McDonald, Dewey                        ACT        1           0.0          --       SEA
CB       23      McDonald, Dexter                       ACT        43          0.0          --       OAK
DB       22      McDonald, T.J.                         ACT        45          0.0          1       MIA
DB       30      McDougald, Bradley                     ACT        75          0.0          --       SEA
CB       --      McDougle, Dexter                       ACT        6           0.0          0       JAX
DB       35      McFadden, Leon                         ACT        0           --          --       ATL
DB       39      McGill, Keith                          UFA        6           0.0          --       OAK
DB       --      McKinnon, Jeremiah                     ACT        --          --          --       NYG
DB       23      McLeod, Rodney                         ACT        54          0.0          3       PHI
DB       27      McManis, Sherrick                      ACT        13          0.0          --       CHI
SAF      34      McQuay, Leon III                       ACT        4           0.0          --       KC
CB       29      McRae, Tony                            ACT        5           0.0          0       CIN
CB       5-      McTyer, Torry                          ACT        2           0.0          --       MIA
SAF      20      Melifonwu, Obi                         ACT        7           0.0          --       OAK
DB       --      Melvin, Rashaan                        ACT        36          0.0          3       OAK
SAF      36      Middleton, Doug                        ACT        --          --          --       NYJ
DB       45      Miles, Rontez                          ACT        24          0.0          --       NYJ
DB       --      Miller, Charlie                        ACT        --          --          --       JAX
CB       34      Miller, Harlan                         ACT        6           0.0          --       ARI
DB       --      Milligan, Rolan                        ACT        0           --          --       DET
SAF      31      Mills, Jalen                           ACT        64          0.0          3       PHI
CB       28      Milton, Chris                          ACT        9           0.0          --       IND
DB       --      Mincy, Jonathon                        ACT        --          --          --       CHI
CB       --      Mitchel, Tevin                         ACT        --          --          --       OAK
DB       23      Mitchell, Mike                         UFA        53          0.0          --       PIT
DB       --      Mitchell, Terrance                     ACT        53          0.0          4       CLE
SAF      43      Moore, Corey                           ACT        27          0.0          --       HOU
DB       --      Moore, Jordan                          ACT        --          --          --       DEN
CB       42      Moore, Kenny                           ACT        38          0.0          1       IND
DB       24      Moore, Sterling                        UFA        5           0.0          --       NO
CB       31      Moreau, Fabian                         ACT        14          0.0          --       WAS
DB       23      Morris, Darryl                         UFA        11          0.0          --       NYG
DB       23      Morris, Darryl                         UFA        11          0.0          --       NYG
CB       --      Moxey, Jonathan                        ACT        --          --          --       ARI
DB       41      Munnerlyn, Captain                     ACT        29          2.0          --       CAR
SAF      36      Murphy, Ryan                           ACT        1           0.0          --       NYG
CB       21      Murray, Eric                           ACT        36          1.0          --       KC
CB       31      Myrick, Jalen                          ACT        0           0.0          --       JAX
SAF      43      Nacua, Kai                             ACT        14          0.0          --       CLE
SAF      22      Neal, Keanu                            ACT        116          0.0          1       ATL
SAF      20      Neasman, Sharrod                       ACT        2           0.0          --       ATL
DB       27      Nelson, Reggie                         ACT        89          0.0          1       OAK
DB       --      Nelson, Robert                         ACT        4           0.0          --       BAL
CB       20      Nelson, Steven                         ACT        41          0.0          --       KC
DB       23      Newman, Terence                        UFA        35          0.0          1       MIN
SAF      35      Nicholson, Montae                      ACT        24          0.0          1       WAS
CB       --      Nixon, Taurean                         ACT        --          --          --       LA
DB       24      Norman, Josh                           ACT        64          0.0          --       WAS
DB       48      Onwuasor, Patrick                      ACT        90          1.0          --       BAL
DB       38      Parker, Ron                            UFA        67          0.0          2       KC
SAF      34      Parks, Will                            ACT        51          0.0          1       DEN
DB       25      Parms, Damian                          ACT        --          --          --       CAR
DB       23      Patmon, Tyler                          ACT        4           0.0          --       JAX
SAF      22      Peppers, Jabrill                       ACT        57          0.0          1       CLE
CB       --      Peters, Marcus                         ACT        46          0.0          5       LA
CB       47      Peterson, Kevin                        ACT        11          0.0          2       LA
DB       21      Peterson, Patrick                      ACT        34          0.0          1       ARI
DB       31      Phillips, Adrian                       ACT        63          0.0          2       LAC
CB       38      Phillips, Dashaun                      ACT        --          --          --       PIT
CB       41      Pipkins, Lenzy                         ACT        15          0.0          --       GB
CB       30      Pitts, Lafayette                       ACT        9           0.0          0       BUF
DB       35      Pleasant, Eddie                        UFA        32          2.0          1       HOU
CB       34      Poole, Brian                           ACT        63          1.0          --       ATL
CB       31      Porter, Reggie                         ACT        0           --          --       CLE
SAF      45      Powell, Tyvis                          ACT        5           0.0          --       SF
DB       21      Poyer, Jordan                          ACT        95          2.0          5       BUF
CB       --      Price, Sheldon                         ACT        0           --          --       KC
DB       27      Quin, Glover                           ACT        84          0.0          3       DET
CB       20      Ramsey, Jalen                          ACT        63          0.0          4       JAX
DB       --      Randall, Damarious                     ACT        47          0.0          4       CLE
CB       40      Reaser, Keith                          ACT        4           1.0          0       KC
CB       --      Redmond, Will                          ACT        --          --          --       KC
DB       24      Reed, Kalan                            ACT        0           0.0          --       TEN
CB       --      Reed, Trovon                           ACT        --          --          --       SF
DB       35      Reid, Eric                             UFA        67          0.0          2       SF
DB       --      Revis, Darrelle                        UFA        11          0.0          --       KC
DB       29      Rhodes, Xavier                         ACT        56          0.0          2       MIN
DB       --      Rice, Denzel                           ACT        --          --          --       CLE
DB       --      Richards, Jeff                         ACT        --          --          --       LAC
SAF      37      Richards, Jordan                       ACT        26          0.0          --       NE
CB       38      Richardson, Horace                     ACT        --          --          --       MIN
DB       --      Richardson, Shaquille                  ACT        --          --          --       OAK
CB       --      Riley, Curtis                          ACT        12          0.0          1       NYG
CB       38      Rios, Marcus                           ACT        5           0.0          --       DEN
CB       27      Rivers, David                          ACT        0           --          --       TB
CB       27      Roberts, Darryl                        ACT        40          0.0          1       NYJ
DB       23      Robey-Coleman, Nickell                 ACT        49          0.0          2       LA
DB       26      Robinson, Josh                         ACT        5           0.0          --       TB
DB       --      Robinson, Patrick                      ACT        47          1.0          4       NO
CB       36      Robinson, Rashard                      ACT        29          0.0          1       NYJ
DB       29      Roby, Bradley                          ACT        42          1.0          1       DEN
DB       41      Rodgers-Cromartie, Dominique           UFA        48          0.5          --       NYG
CB       24      Rollins, Quinten                       ACT        19          0.0          --       GB
CB       25      Rowe, Eric                             ACT        15          0.0          --       NE
CB       20      Russell, KeiVarae                      ACT        9           0.0          --       CIN
DB       26      Ryan, Logan                            ACT        62          0.0          --       TEN
SAF      --      Sample, James                          ACT        --          --          --       WAS
CB       --      Sanchez, Zack                          ACT        --          --          --       CAR
DB       --      Scandrick, Orlando                     ACT        38          0.0          --       WAS
SAF      --      Scott, Tim                             ACT        0           --          --       NYG
DB       --      Seamster, Sammy                        ACT        --          --          --       JAX
DB       --      Searcy, Da'Norris                      ACT        26          0.0          1       CAR
DB       34      Sendejo, Andrew                        ACT        80          0.0          2       MIN
DB       24      Sensabaugh, Coty                       ACT        22          0.0          1       PIT
CB       27      Seymour, Kevon                         ACT        22          0.0          --       CAR
CB       26      Shaw, Josh                             ACT        36          0.0          --       CIN
DB       --      Shead, DeShawn                         ACT        2           0.0          --       DET
CB       --      Shelton, Sojourn                       ACT        --          --          --       CIN
CB       --      Shelton, Sojourn                       ACT        --          --          --       CIN
DB       35      Sherels, Marcus                        ACT        6           0.0          --       MIN
DB       --      Sherman, Richard                       ACT        35          0.0          2       SF
DB       --      Shields, Sam                           ACT        --          --          --       LA
SAF      31      Simmons, Justin                        ACT        68          1.0          2       DEN
SAF      37      Simone, Jordan                         ACT        --          --          --       SEA
CB       36      Sims, LeShaun                          ACT        36          0.0          1       TEN
DB       41      Skrine, Buster                         ACT        63          1.0          1       NYJ
DB       23      Slay, Darius                           ACT        60          0.0          8       DET
CB       --      Smith, C.J.                            ACT        1           0.0          --       DEN
SAF      36      Smith, Derron                          ACT        5           0.0          0       CLE
DB       22      Smith, Harrison                        ACT        78          1.5          5       MIN
DB       22      Smith, Jimmy                           ACT        28          0.0          3       BAL
SAF      27      Smith, Maurice                         ACT        1           0.0          --       MIA
CB       29      Smith, Ryan                            ACT        62          0.0          --       TB
DB       21      Smith, Sean                            UFA        34          0.0          2       OAK
CB       33      Smith, Tye                             ACT        19          0.0          1       TEN
SAF      37      Smithson, Fish                         ACT        1           0.0          --       WAS
DB       49      Sorensen, Daniel                       ACT        89          1.5          1       KC
DB       --      Southward, Dezmen                      ACT        0           --          --       CAR
DB       40      Sterns, Jordan                         ACT        --          --          --       KC
DB       26      Stewart, Darian                        ACT        63          0.0          3       DEN
CB       --      Stribling, Channing                    ACT        --          --          --       SF
DB       --      Sullivan, Tre                          ACT        --          --          --       PHI
CB       34      Sutton, Cameron                        ACT        5           0.0          --       PIT
DB       36      Swearinger, D.J.                       ACT        79          0.5          4       WAS
DB       --      Sylve, Bradley                         UFA        --          --          --       NO
CB       30      Tabor, Teez                            ACT        14          0.0          --       DET
DB       --      Talib, Aqib                            ACT        31          0.0          1       LA
DB       37      Tandy, Keith                           ACT        26          0.0          --       TB
CB       30      Tankersley, Cordrea                    ACT        31          0.0          --       MIA
SAF      29      Tartt, Jaquiski                        ACT        55          0.5          1       SF
DB       21      Taylor, Jamar                          ACT        62          0.5          --       CLE
DB       30      Terrell, Steven                        UFA        4           0.0          1       KC
SAF      --      Therezie, Robenson                     ACT        --          --          --       CIN
DB       --      Thomas, Ahmad                          ACT        --          --          --       GB
SAF      35      Thomas, Dymonte                        ACT        8           0.0          --       DEN
DB       29      Thomas, Earl                           ACT        88          0.0          2       SEA
DB       --      Thomas, Michael                        ACT        27          0.0          --       NYG
DB       26      Thomas, Duke                           ACT        --          --          --       DAL
DB       29      Thomas, Shamarko                       UFA        9           0.0          --       BUF
SAF      27      Thompson, Darian                       ACT        75          0.0          1       NYG
DB       --      Thompson, Jason                        ACT        --          --          --       DAL
DB       --      Thompson, Mykkele                      ACT        --          --          --       NO
DB       25      Thompson, Peyton                       ACT        12          0.0          --       JAX
SAF      33      Thompson, Tedric                       ACT        4           0.0          --       SEA
CB       --      Thornton, Josh                         ACT        --          --          --       HOU
DB       23      Thorpe, Neiko                          ACT        12          0.0          --       SEA
CB       --      Tocho, Jack                            ACT        --          --          --       MIN
DB       35      Travis, Damarius                       ACT        --          --          --       NE
DB       41      Trawick, Brynden                       ACT        12          0.0          --       TEN
DB       21      Trufant, Desmond                       ACT        41          1.0          2       ATL
SAF      40      Tyson, Mike                            ACT        0           --          --       SEA
DB       32      Vaccaro, Kenny                         UFA        60          1.5          3       NO
DB       42      Verner, Alterraun                      UFA        15          0.0          --       MIA
DB       22      Verrett, Jason                         ACT        1           0.0          --       LAC
DB       --      Virgin, Dee                            ACT        --          --          --       HOU
DB       25      Ward, Jimmie                           ACT        32          0.0          --       SF
DB       43      Ward, T.J.                             UFA        43          0.0          --       TB
SAF      45      Washington, Charles                    ACT        14          0.0          --       DET
CB       26      Waters, Herb                           ACT        --          --          --       GB
DB       --      Watkins, Jaylen                        ACT        17          0.0          --       LAC
CB       26      Waynes, Trae                           ACT        65          1.0          2       MIN
DB       21      Webb, Lardarius                        UFA        39          2.0          2       BAL
DB       --      Webb, B.W.                             ACT        0           --          --       NYG
DB       21      Webster, Kayvon                        UFA        38          0.0          1       LA
DB       32      Weddle, Eric                           ACT        63          1.0          6       BAL
DB       --      White, Corey                           ACT        --          --          --       CLE
CB       37      White, D.J.                            ACT        3           0.0          0       IND
CB       39      White, Marquez                         ACT        --          --          --       DAL
CB       27      White, Tre'Davious                     ACT        69          0.0          4       BUF
SAF      35      Whitehead, Jermaine                    ACT        11          0.0          --       GB
DB       27      Wilcox, J.J.                           ACT        12          0.0          1       PIT
CB       26      Williams, Brandon                      ACT        2           0.0          --       ARI
DB       24      Williams, K'Waun                       ACT        54          1.0          1       SF
CB       26      Williams, P.J.                         ACT        47          0.0          2       NO
CB       26      Williams, P.J.                         ACT        47          0.0          2       NO
SAF      43      Williams, Marcus                       ACT        73          0.0          4       NO
DB       40      Williams, Marcus                       UFA        18          0.0          1       HOU
DB       36      Williams, Shawn                        ACT        49          0.0          1       CIN
DB       --      Williams, Teddy                        ACT        --          --          --       NYG
DB       --      Williams, Tramon                       ACT        41          0.0          2       GB
CB       24      Williams, Trevor                       ACT        56          0.0          2       LAC
CB       35      Wilson, Howard                         ACT        --          --          --       CLE
SAF      26      Wilson, Jarrod                         ACT        11          0.0          --       JAX
CB       31      Wilson, Quincy                         ACT        22          0.0          1       IND
DB       32      Wilson, Tavon                          ACT        55          2.0          1       DET
CB       --      Wiltz, Jomal                           ACT        --          --          --       NE
CB       23      Witherspoon, Ahkello                   ACT        32          0.0          2       SF
SAF      25      Woods, Xavier                          ACT        42          0.0          1       DAL
CB       --      Worley, Daryl                          ACT        64          1.0          2       PHI
DB       33      Wreh-Wilson, Blidi                     ACT        4           0.0          --       ATL
DB       --      Wright, Shareece                       ACT        44          0.0          1       OAK
CB       --      Young, Lou                             ACT        --          --          --       ARI
CB       25      Young, Tavon                           ACT        --          --          --       BAL
CB       --      Zamort, Ronald                         ACT        --          --          --       ARI
